^C:\USERS\윤상운\DESKTOP\BCSD공부\WINAPI\WINAPI\WINAPI\STDAFX.CPP
C:\USERS\윤상운\DESKTOP\BCSD공부\WINAPI\WINAPI\WINAPI\DEBUG\WINAPI.PCH
C:\USERS\윤상운\DESKTOP\BCSD공부\WINAPI\WINAPI\WINAPI\DEBUG\VC141.PDB
C:\USERS\윤상운\DESKTOP\BCSD공부\WINAPI\WINAPI\WINAPI\DEBUG\VC141.IDB
C:\USERS\윤상운\DESKTOP\BCSD공부\WINAPI\WINAPI\WINAPI\DEBUG\STDAFX.OBJ
^C:\USERS\윤상운\DESKTOP\BCSD공부\WINAPI\WINAPI\WINAPI\WINAPI.CPP
C:\USERS\윤상운\DESKTOP\BCSD공부\WINAPI\WINAPI\WINAPI\DEBUG\VC141.PDB
C:\USERS\윤상운\DESKTOP\BCSD공부\WINAPI\WINAPI\WINAPI\DEBUG\VC141.IDB
C:\USERS\윤상운\DESKTOP\BCSD공부\WINAPI\WINAPI\WINAPI\DEBUG\WINAPI.OBJ
